…
Next, save the address data in a tibble to make it easier to manage.

``` r
avalon <- 
  tibble(
    owner = "avalon",
    address = str_to_upper(address_data),
    access_date = Sys.Date()
  )
avalon
```

    ## # A tibble: 37 x 3
    ##    owner  address                                    access_date
    ##    <chr>  <chr>                                      <date>     
    ##  1 avalon 55 NINTH STREET SAN FRANCISCO, CA 94103    2020-07-21 
    ##  2 avalon 965 SUTTER STREET SAN FRANCISCO, CA 94109  2020-07-21 
    ##  3 avalon 754 THE ALAMEDA SAN JOSE, CA 95126         2020-07-21 
    ##  4 avalon 255 KING STREET SAN FRANCISCO, CA 94107    2020-07-21 
    ##  5 avalon 651 ADDISON STREET BERKELEY, CA 94710      2020-07-21 
    ##  6 avalon 508 RAILWAY AVENUE CAMPBELL, CA 95008      2020-07-21 
    ##  7 avalon 800 INDIANA STREET SAN FRANCISCO, CA 94107 2020-07-21 
    ##  8 avalon 5200 IRON HORSE PARKWAY DUBLIN, CA 94568   2020-07-21 
    ##  9 avalon 39939 STEVENSON COMMON FREMONT, CA 94538   2020-07-21 
    ## 10 avalon 325 OCTAVIA STREET SAN FRANCISCO, CA 94102 2020-07-21 
    ## # ... with 27 more rows
…
  transmute(
    owner,
    address,
    access_date,
    house_num = pm.house,
    dir = str_to_upper(pm.preDir),
    street = str_to_upper(pm.street),
    mode = str_to_upper(pm.streetSuf),
    city = pm.city,
    zipcode = pm.zip
  )
avalon
```

    ## # A tibble: 37 x 9
    ##    owner  address        access_date house_num dir   street mode  city   zipcode
    ##    <chr>  <chr>          <date>      <chr>     <chr> <chr>  <chr> <chr>  <chr>  
    ##  1 avalon 55 NINTH STRE~ 2020-07-21  55        <NA>  9TH    ST    SAN F~ 94103  
    ##  2 avalon 965 SUTTER ST~ 2020-07-21  965       <NA>  SUTTER ST    SAN F~ 94109  
    ##  3 avalon 754 THE ALAME~ 2020-07-21  754       <NA>  THE A~ <NA>  SAN J~ 95126  
    ##  4 avalon 255 KING STRE~ 2020-07-21  255       <NA>  KING   ST    SAN F~ 94107  
    ##  5 avalon 651 ADDISON S~ 2020-07-21  651       <NA>  ADDIS~ ST    BERKE~ 94710  
    ##  6 avalon 508 RAILWAY A~ 2020-07-21  508       <NA>  RAILW~ AVE   CAMPB~ 95008  
    ##  7 avalon 800 INDIANA S~ 2020-07-21  800       <NA>  INDIA~ ST    SAN F~ 94107  
    ##  8 avalon 5200 IRON HOR~ 2020-07-21  5200      <NA>  IRON ~ PKWY  DUBLIN 94568  
    ##  9 avalon 39939 STEVENS~ 2020-07-21  39939     <NA>  STEVE~ CMN   FREMO~ 94538  
    ## 10 avalon 325 OCTAVIA S~ 2020-07-21  325       <NA>  OCTAV~ ST    SAN F~ 94102  
    ## # ... with 27 more rows
…
There are 12 different names.

The following are units owned by Avalon that were not listed on their
website.

``` r
avalon_unlisted <- 
  cl_select %>% 
  filter(OWNER1_LAST_NAME %in% owners) %>% 
  anti_join(avalon_cl, by = "FORMATTED_APN") %>% 
  select(contains("SITUS"))
avalon_unlisted
```

    ## # A tibble: 68 x 7
    ##    SITUS_STATE SITUS_CITY SITUS_ZIP_CODE SITUS_STREET_NA~ SITUS_HOUSE_NUM~
    ##    <chr>       <chr>      <chr>          <chr>            <chr>           
    ##  1 CA          BERKELEY   947022323      WARD             1311            
    ##  2 CA          FREMONT    945381904      BURR             39864           
    ##  3 CA          FREMONT    945395245      OLIVE            964             
    ##  4 CA          LIVERMORE  945505908      EL CAMINITO      945             
    ##  5 CA          FREMONT    945364278      STONINGTON       38778           
    ##  6 CA          PLEASANTON 945663261      BROOKLINE        1308            
    ##  7 CA          DUBLIN     945682900      MONTIANO         5251            
    ##  8 CA          BERKELEY   947042456      CHANNING         2727            
    ##  9 CA          UNION CITY 94587          DECOTO           2261            
    ## 10 CA          WALNUT CR~ 945977953      TREAT            1445            
    ## # ... with 58 more rows, and 2 more variables: SITUS_MODE <chr>,
    ## #   SITUS_CARRIER_CODE <chr>
…
