…
cl_city_redwood_res
```

    ## Simple feature collection with 2483 features and 66 fields
    ## geometry type:  POINT
    ## dimension:      XY
    ## bbox:           xmin: -122.2761 ymin: 37.44864 xmax: -122.1836 ymax: 37.54823
    ## epsg (SRID):    4269
    ## proj4string:    +proj=longlat +datum=NAD83 +no_defs
    ## # A tibble: 2,483 x 67
    ##    fips_code unformatted_apn apn_sequence_nbr formatted_apn original_apn
    ##    <chr>     <chr>                      <dbl> <chr>         <chr>       
    ##  1 06081     058357040                      1 058-357-040   058357040   
    ##  2 06081     069123300                      1 069-123-300   069123300   
    ##  3 06081     134161251                      1 134-161-251   134161251   
    ##  4 06081     134161260                      1 134-161-260   134161260   
    ##  5 06081     134161280                      1 134-161-280   134161280   
    ##  6 06081     134161290                      1 134-161-290   134161290   
    ##  7 06081     134161310                      1 134-161-310   134161310   
    ##  8 06081     134161321                      1 134-161-321   134161321   
    ##  9 06081     134161330                      1 134-161-330   134161330   
    ## 10 06081     134162020                      1 134-162-020   134162020   
    ## # ... with 2,473 more rows, and 62 more variables: `p-id-iris-frmtd` <chr>,
    ## #   total_value_calculated_ind <chr>, land_value_calculated_ind <chr>,
    ## #   improvement_value_calculated_ind <chr>, situs_state <chr>,
    ## #   owner1_last_name <chr>, mail_city <chr>, mail_state <chr>,
    ## #   `parcel_level_latitude_(2.6)` <dbl>, `parcel_level_longitude_(3.6)` <dbl>,
    ## #   mail_zip_code <chr>, census_tract <dbl>, mail_street_name <chr>,
    ## #   tax_code_area <dbl>, land_use <dbl>, property_indicator <chr>,
    ## #   county_use1 <chr>, land_square_footage <dbl>, acres <dbl>,
    ## #   mail_carrier_code <chr>, situs_city <chr>, situs_zip_code <dbl>,
…
