…
``` r
q1.1 <- 
  file_data_dic %>% 
  read_excel(sheet = "LUSE") %>% 
  transmute(
    luse_code = as.double(`CdVal`),
    luse_desc = `CdDesc`
  )

# Print results
if (exists("q1.1")) q1.1
```

    ## # A tibble: 277 x 2
    ##    luse_code luse_desc          
    ##        <dbl> <chr>              
    ##  1         0 TYPE UNKNOWN       
    ##  2       100 RESIDENTIAL (NEC)  
    ##  3       102 TOWNHOUSE/ROWHOUSE 
    ##  4       103 APARTMENT/HOTEL    
    ##  5       106 APARTMENT          
    ##  6       109 CABIN              
    ##  7       111 COOPERATIVE        
    ##  8       112 CONDOMINIUM        
    ##  9       113 CONDOMINIUM PROJECT
    ## 10       114 COMMON AREA        
    ## # ... with 267 more rows
…
# Print results
if (exists("q1.2")) q1.2
```

    ## Simple feature collection with 2483 features and 66 fields
    ## geometry type:  POINT
    ## dimension:      XY
    ## bbox:           xmin: -122.2761 ymin: 37.44864 xmax: -122.1836 ymax: 37.54823
    ## epsg (SRID):    4269
    ## proj4string:    +proj=longlat +datum=NAD83 +no_defs
    ## # A tibble: 2,483 x 67
    ##    fips_code unformatted_apn apn_sequence_nbr formatted_apn original_apn
    ##    <chr>     <chr>                      <dbl> <chr>         <chr>       
    ##  1 06081     058357040                      1 058-357-040   058357040   
    ##  2 06081     069123300                      1 069-123-300   069123300   
    ##  3 06081     134161251                      1 134-161-251   134161251   
    ##  4 06081     134161260                      1 134-161-260   134161260   
    ##  5 06081     134161280                      1 134-161-280   134161280   
    ##  6 06081     134161290                      1 134-161-290   134161290   
    ##  7 06081     134161310                      1 134-161-310   134161310   
    ##  8 06081     134161321                      1 134-161-321   134161321   
    ##  9 06081     134161330                      1 134-161-330   134161330   
    ## 10 06081     134162020                      1 134-162-020   134162020   
    ## # ... with 2,473 more rows, and 62 more variables: `p-id-iris-frmtd` <chr>,
    ## #   total_value_calculated_ind <chr>, land_value_calculated_ind <chr>,
    ## #   improvement_value_calculated_ind <chr>, situs_state <chr>,
    ## #   owner1_last_name <chr>, mail_city <chr>, mail_state <chr>,
    ## #   `parcel_level_latitude_(2.6)` <dbl>, `parcel_level_longitude_(3.6)` <dbl>,
    ## #   mail_zip_code <chr>, census_tract <dbl>, mail_street_name <chr>,
    ## #   tax_code_area <dbl>, land_use <dbl>, property_indicator <chr>,
    ## #   county_use1 <chr>, land_square_footage <dbl>, acres <dbl>,
    ## #   mail_carrier_code <chr>, situs_city <chr>, situs_zip_code <dbl>,
…
# Print results
if (exists("q1.4")) q1.4
```

    ## Simple feature collection with 2483 features and 67 fields
    ## geometry type:  POINT
    ## dimension:      XY
    ## bbox:           xmin: -122.2761 ymin: 37.44864 xmax: -122.1836 ymax: 37.54823
    ## epsg (SRID):    4269
    ## proj4string:    +proj=longlat +datum=NAD83 +no_defs
    ## # A tibble: 2,483 x 68
    ##    fips_code unformatted_apn apn_sequence_nbr formatted_apn original_apn
    ##  * <chr>     <chr>                      <dbl> <chr>         <chr>       
    ##  1 06081     058357040                      1 058-357-040   058357040   
    ##  2 06081     069123300                      1 069-123-300   069123300   
    ##  3 06081     134161251                      1 134-161-251   134161251   
    ##  4 06081     134161260                      1 134-161-260   134161260   
    ##  5 06081     134161280                      1 134-161-280   134161280   
    ##  6 06081     134161290                      1 134-161-290   134161290   
    ##  7 06081     134161310                      1 134-161-310   134161310   
    ##  8 06081     134161321                      1 134-161-321   134161321   
    ##  9 06081     134161330                      1 134-161-330   134161330   
    ## 10 06081     134162020                      1 134-162-020   134162020   
    ## # ... with 2,473 more rows, and 63 more variables: `p-id-iris-frmtd` <chr>,
    ## #   total_value_calculated_ind <chr>, land_value_calculated_ind <chr>,
    ## #   improvement_value_calculated_ind <chr>, situs_state <chr>,
    ## #   owner1_last_name <chr>, mail_city <chr>, mail_state <chr>,
    ## #   `parcel_level_latitude_(2.6)` <dbl>, `parcel_level_longitude_(3.6)` <dbl>,
    ## #   mail_zip_code <chr>, census_tract <dbl>, mail_street_name <chr>,
    ## #   tax_code_area <dbl>, land_use <dbl>, property_indicator <chr>,
    ## #   county_use1 <chr>, land_square_footage <dbl>, acres <dbl>,
    ## #   mail_carrier_code <chr>, situs_city <chr>, situs_zip_code <dbl>,
…
# Print results
if (exists("q2.1")) q2.1
```

    ## # A tibble: 52 x 21
    ##    GEOID NAME  B19001_001 B19001_002 B19001_003 B19001_004 B19001_005 B19001_006
    ##    <chr> <chr>      <dbl>      <dbl>      <dbl>      <dbl>      <dbl>      <dbl>
    ##  1 0608~ Bloc~        557         18          0          0          0          0
    ##  2 0608~ Bloc~        544          0          0          0         34          0
    ##  3 0608~ Bloc~        773          0          0         36         23         11
    ##  4 0608~ Bloc~        881         39          7          0          0          9
    ##  5 0608~ Bloc~        290         32         10         38          0          0
    ##  6 0608~ Bloc~        633         24          0          9         10         20
    ##  7 0608~ Bloc~        257          0          0          0         10          0
    ##  8 0608~ Bloc~        507          0          0          9          0          9
    ##  9 0608~ Bloc~        413          9          9          0          0          0
    ## 10 0608~ Bloc~        649          0          0         10          9         19
    ## # ... with 42 more rows, and 13 more variables: B19001_007 <dbl>,
    ## #   B19001_008 <dbl>, B19001_009 <dbl>, B19001_010 <dbl>, B19001_011 <dbl>,
    ## #   B19001_012 <dbl>, B19001_013 <dbl>, B19001_014 <dbl>, B19001_015 <dbl>,
    ## #   B19001_016 <dbl>, B19001_017 <dbl>, eligible_ami <dbl>,
    ## #   eligible_ami_prop <dbl>
…
# Print results
if (exists("q2.3")) q2.3
```

    ## Simple feature collection with 52 features and 32 fields
    ## geometry type:  MULTIPOLYGON
    ## dimension:      XY
    ## bbox:           xmin: -122.2924 ymin: 37.44205 xmax: -122.1616 ymax: 37.56053
    ## epsg (SRID):    4269
    ## proj4string:    +proj=longlat +datum=NAD83 +no_defs
    ## # A tibble: 52 x 33
    ##    GEOID NAME  B19001_001 B19001_002 B19001_003 B19001_004 B19001_005 B19001_006
    ##    <chr> <chr>      <dbl>      <dbl>      <dbl>      <dbl>      <dbl>      <dbl>
    ##  1 0608~ Bloc~        557         18          0          0          0          0
    ##  2 0608~ Bloc~        544          0          0          0         34          0
    ##  3 0608~ Bloc~        773          0          0         36         23         11
    ##  4 0608~ Bloc~        881         39          7          0          0          9
    ##  5 0608~ Bloc~        290         32         10         38          0          0
    ##  6 0608~ Bloc~        633         24          0          9         10         20
    ##  7 0608~ Bloc~        257          0          0          0         10          0
    ##  8 0608~ Bloc~        507          0          0          9          0          9
    ##  9 0608~ Bloc~        413          9          9          0          0          0
    ## 10 0608~ Bloc~        649          0          0         10          9         19
    ## # ... with 42 more rows, and 25 more variables: B19001_007 <dbl>,
    ## #   B19001_008 <dbl>, B19001_009 <dbl>, B19001_010 <dbl>, B19001_011 <dbl>,
    ## #   B19001_012 <dbl>, B19001_013 <dbl>, B19001_014 <dbl>, B19001_015 <dbl>,
    ## #   B19001_016 <dbl>, B19001_017 <dbl>, eligible_ami <dbl>,
    ## #   eligible_ami_prop <dbl>, STATEFP <chr>, COUNTYFP <chr>, TRACTCE <chr>,
    ## #   BLKGRPCE <chr>, NAMELSAD <chr>, MTFCC <chr>, FUNCSTAT <chr>, ALAND <dbl>,
    ## #   AWATER <dbl>, INTPTLAT <chr>, INTPTLON <chr>, geometry <MULTIPOLYGON [°]>
…
    ## although coordinates are longitude/latitude, st_intersects assumes that they are planar
    ## although coordinates are longitude/latitude, st_intersects assumes that they are planar

``` r
# Print results
if (exists("q3.1")) q3.1
```

    ## Simple feature collection with 52 features and 35 fields
    ## geometry type:  MULTIPOLYGON
    ## dimension:      XY
    ## bbox:           xmin: -122.2924 ymin: 37.44205 xmax: -122.1616 ymax: 37.56053
    ## epsg (SRID):    4269
    ## proj4string:    +proj=longlat +datum=NAD83 +no_defs
    ## # A tibble: 52 x 36
    ##    GEOID NAME  B19001_001 B19001_002 B19001_003 B19001_004 B19001_005 B19001_006
    ##  * <chr> <chr>      <dbl>      <dbl>      <dbl>      <dbl>      <dbl>      <dbl>
    ##  1 0608~ Bloc~        557         18          0          0          0          0
    ##  2 0608~ Bloc~        544          0          0          0         34          0
    ##  3 0608~ Bloc~        773          0          0         36         23         11
    ##  4 0608~ Bloc~        881         39          7          0          0          9
    ##  5 0608~ Bloc~        290         32         10         38          0          0
    ##  6 0608~ Bloc~        633         24          0          9         10         20
    ##  7 0608~ Bloc~        257          0          0          0         10          0
    ##  8 0608~ Bloc~        507          0          0          9          0          9
    ##  9 0608~ Bloc~        413          9          9          0          0          0
    ## 10 0608~ Bloc~        649          0          0         10          9         19
    ## # ... with 42 more rows, and 28 more variables: B19001_007 <dbl>,
    ## #   B19001_008 <dbl>, B19001_009 <dbl>, B19001_010 <dbl>, B19001_011 <dbl>,
    ## #   B19001_012 <dbl>, B19001_013 <dbl>, B19001_014 <dbl>, B19001_015 <dbl>,
    ## #   B19001_016 <dbl>, B19001_017 <dbl>, eligible_ami <dbl>,
    ## #   eligible_ami_prop <dbl>, STATEFP <chr>, COUNTYFP <chr>, TRACTCE <chr>,
    ## #   BLKGRPCE <chr>, NAMELSAD <chr>, MTFCC <chr>, FUNCSTAT <chr>, ALAND <dbl>,
    ## #   AWATER <dbl>, INTPTLAT <chr>, INTPTLON <chr>, geometry <MULTIPOLYGON [°]>,
    ## #   eligible_units_cbg <int>, total_units <int>, eligible_units_prop <dbl>
…
